{
    "records": [{
        "name": "Cloud",
        "items": [],
        "url": "https://integration.cloud.tibco.com:443"
    }],
    "resources": [{
        "location": "Service Descriptors/gettaskids.module.GetTaskIDs-GetTaskIDs.json",
        "type": "generated"
    }]
}